…
    ## # A tibble: 1 x 1
    ##           table_name
    ##                <chr>
    ## 1 d_bio_committee_mv

``` r
# or view all of the d_bio tables:
find_tables("d_bio")
```

    ## # A tibble: 24 x 1
    ##                       table_name
    ##                            <chr>
    ## 1      d_bio_student_activity_mv
    ## 2                 d_bio_sport_mv
    ## 3            d_bio_salutation_mv
    ## 4          d_bio_relationship_mv
    ## 5  d_bio_relationship_details_mv
    ## 6      d_bio_org_relationship_mv
    ## 7         d_bio_org_employees_mv
    ## 8                  d_bio_name_mv
    ## 9          d_bio_mailing_list_mv
    ## 10             d_bio_interest_mv
    ## # ... with 14 more rows

``` r
# all of the giving summary tables are like sf_something_summary_mv:
find_tables("^sf_.+_summary_mv$")
```

    ## # A tibble: 26 x 1
    ##                       table_name
    ##                            <chr>
    ## 1      sf_transaction_summary_mv
    ## 2         sf_prospect_summary_mv
    ## 3     sf_prospect_prp_summary_mv
    ## 4   sf_prospect_prpfy_summary_mv
    ## 5      sf_prospect_fy_summary_mv
    ## 6    sf_prospect_dept_summary_mv
    ## 7  sf_prospect_deptfy_summary_mv
    ## 8     sf_prospect_aog_summary_mv
    ## 9   sf_prospect_aogfy_summary_mv
    ## 10         sf_hh_corp_summary_mv
    ## # ... with 16 more rows
…
    ## # A tibble: 1 x 4
    ##    table_name         column_name data_type data_length
    ##         <chr>               <chr>     <chr>       <dbl>
    ## 1 d_entity_mv household_entity_id    NUMBER          22

``` r
# where are all of the places degree information appears?
find_columns("degree")
```

    ## # A tibble: 695 x 4
    ##                       table_name          column_name data_type
    ##                            <chr>                <chr>     <chr>
    ## 1               d_bio_degrees_mv          degree_type      CHAR
    ## 2               d_bio_degrees_mv     degree_type_desc  VARCHAR2
    ## 3               d_bio_degrees_mv    degree_level_code      CHAR
    ## 4               d_bio_degrees_mv    degree_level_desc  VARCHAR2
    ## 5               d_bio_degrees_mv          degree_code  VARCHAR2
    ## 6               d_bio_degrees_mv          degree_desc  VARCHAR2
    ## 7               d_bio_degrees_mv          degree_year  VARCHAR2
    ## 8               d_bio_degrees_mv honorary_degree_code  VARCHAR2
    ## 9               d_bio_degrees_mv honorary_degree_desc  VARCHAR2
    ## 10 d_bio_relationship_details_mv    degree_major_year  VARCHAR2
    ## # ... with 685 more rows, and 1 more variables: data_length <dbl>

Code search
-----------

You can search through TMS tables to find codes:

``` r
# where/how do we record peace_corps participation?
find_codes("peace corps")
```

    ## # A tibble: 116 x 4
    ##     code                  description       table_name       view_name
    ##    <chr>                        <chr>            <chr>           <chr>
    ## 1  PCAFG    Peace Corps - Afghanistan Student Activity tms_student_act
    ## 2   PCAR Peace Corps - African Region Student Activity tms_student_act
    ## 3  PCALB        Peace Corps - Albania Student Activity tms_student_act
    ## 4  PCARM        Peace Corps - Armenia Student Activity tms_student_act
    ## 5  PCBGD     Peace Corps - Bangladesh Student Activity tms_student_act
    ## 6  PCBLZ         Peace Corps - Belize Student Activity tms_student_act
    ## 7  PCBEN          Peace Corps - Benin Student Activity tms_student_act
    ## 8  PCBOL        Peace Corps - Bolivia Student Activity tms_student_act
    ## 9  PCBWA       Peace Corps - Botswana Student Activity tms_student_act
    ## 10 PCBRA         Peace Corps - Brazil Student Activity tms_student_act
    ## # ... with 106 more rows
…
